{
    "prepare_queue": {
        "installed": [],
        "uninstalled": []
    },
    "config_munge": {
        "files": {
            "framework": {
                "parents": {
                    "AssetsLibrary.framework": [
                        {
                            "xml": false,
                            "count": 2
                        }
                    ],
                    "MobileCoreServices.framework": [
                        {
                            "xml": false,
                            "count": 1
                        }
                    ],
                    "AudioToolbox.framework": [
                        {
                            "xml": true,
                            "count": 1
                        }
                    ]
                }
            },
            "config.xml": {
                "parents": {
                    "/*": [
                        {
                            "xml": "<feature name=\"File\"><param name=\"ios-package\" value=\"CDVFile\" /><param name=\"onload\" value=\"true\" /></feature>",
                            "count": 1
                        },
                        {
                            "xml": "<feature name=\"FileTransfer\"><param name=\"ios-package\" value=\"CDVFileTransfer\" /></feature>",
                            "count": 1
                        },
                        {
                            "xml": "<feature name=\"Notification\"><param name=\"ios-package\" value=\"CDVNotification\" /></feature>",
                            "count": 1
                        }
                    ]
                }
            }
        }
    },
    "installed_plugins": {
        "org.apache.cordova.file": {
            "PACKAGE_NAME": "com.amp.funnybot"
        },
        "org.apache.cordova.file-transfer": {
            "PACKAGE_NAME": "com.amp.funnybot"
        },
        "org.apache.cordova.dialogs": {
            "PACKAGE_NAME": "com.amp.funnybot"
        },
        "com.likesmagia.cordova.updater": {
            "SERVER_ADDRESS": "localhost:3000/appUpdate/",
            "PACKAGE_NAME": "com.new.project"
        }
    },
    "dependent_plugins": {}
}